Youssef;AIT LACHGUER
Corentin;BON
Thomas;COCHART
Antoine;DANGLETERRE
Sofiane;DEBRABANT
Hugo;DELZENNE
Alexandre;GENESTE
Alexandre;GHESQUIERE
Baptiste;LECLERCQ
Mathieu;LISON
Pierre;STAWIKOWSKI
Thomas;THURLURE
